<?xml version="1.0" encoding="UTF-8" standalone="no"?>
<svg
   xmlns:dc="http://purl.org/dc/elements/1.1/"
   xmlns:cc="http://creativecommons.org/ns#"
   xmlns:rdf="http://www.w3.org/1999/02/22-rdf-syntax-ns#"
   xmlns:svg="http://www.w3.org/2000/svg"
   xmlns="http://www.w3.org/2000/svg"
   xmlns:sodipodi="http://sodipodi.sourceforge.net/DTD/sodipodi-0.dtd"
   xmlns:inkscape="http://www.inkscape.org/namespaces/inkscape"
   width="104.30078"
   height="183.95937"
   viewBox="0 0 78.22566 137.96962"
   version="1.1"
   id="svg3"
   sodipodi:docname="army_0.svg"
   inkscape:version="1.0.1 (0767f8302a, 2020-10-17)">
  <metadata
     id="metadata9">
    <rdf:RDF>
      <cc:Work
         rdf:about="">
        <dc:format>image/svg+xml</dc:format>
        <dc:type
           rdf:resource="http://purl.org/dc/dcmitype/StillImage" />
        <dc:title></dc:title>
      </cc:Work>
    </rdf:RDF>
  </metadata>
  <defs
     id="defs7" />
  <sodipodi:namedview
     pagecolor="#ffffff"
     bordercolor="#666666"
     borderopacity="1"
     objecttolerance="10"
     gridtolerance="10"
     guidetolerance="10"
     inkscape:pageopacity="0"
     inkscape:pageshadow="2"
     inkscape:window-width="1369"
     inkscape:window-height="1058"
     id="namedview5"
     showgrid="false"
     inkscape:zoom="1.9224484"
     inkscape:cx="-32.989212"
     inkscape:cy="-9.2933857"
     inkscape:window-x="49"
     inkscape:window-y="0"
     inkscape:window-maximized="0"
     inkscape:current-layer="svg3"
     inkscape:document-rotation="0"
     fit-margin-top="0"
     fit-margin-left="0"
     fit-margin-right="0"
     fit-margin-bottom="0"
     units="px" />
  <path
     id="Unnamed #1"
     d="m 41.010723,12.898363 -2.244144,1.026856 -1.120606,2.310062 -0.561036,3.079106 c 0,0 0.840821,3.594386 0.840821,3.851074 0,0.256695 1.683108,4.620124 1.683108,4.620124 l 0.417481,7.995128 -4.536626,3.520023 4.252445,0.03662 1.908694,5.724621 1.951173,1.95703 -5.676275,9.002939 -6.168462,-2.053714 H 27.83151 L 9.8856927,46.247025 9.1342264,47.41744 0.07855418,43.920853 C 3.168624,47.855145 4.8012149,48.899864 4.8012149,48.899864 l 9.2358491,4.932133 c 0.453509,0.24225 1.13086,-0.61377 1.13086,-0.61377 l 9.008798,3.892093 1.848635,4.275883 5.452153,4.390141 9.812997,5.646979 -9.533211,23.102072 0.279785,19.765155 -11.0171,8.72315 -0.600587,3.73096 57.884821,0.12305 -0.561036,-5.13428 -4.48682,-1.53955 -4.205571,-18.7383 -4.20557,-8.727549 2.242678,-6.673835 5.607427,1.797365 c 0,0 2.804564,-9.754062 3.084964,-10.010752 0.2804,-0.25669 -7.010749,-4.621586 -7.010749,-4.621586 l 1.401857,-3.079105 0.28125,-14.888686 1.962892,-5.39063 -5.047856,-8.471201 -5.888677,-0.769043 -4.766606,-0.256351 c 0,0 1.401856,-4.364891 1.401856,-4.621587 0,-0.256687 0.842286,-5.646973 0.842286,-5.646973 l -2.523928,-1.539556 -6.168463,-1.026856 c 0,0 -2.244143,-2.309717 -2.244143,-2.566405 0,-0.256688 -1.401856,-8.471198 -1.401856,-8.471198 l -2.242678,-2.824226 z m 6.604986,79.466386 3.244632,1.155762 4.357914,9.038099 1.923342,2.74219 2.934085,5.38184 1.0459,3.14209 -3.200688,2.1709 -2.709963,0.89648 -6.864264,0.0132 -4.357915,-0.0366 -0.01465,-2.56055 0.508301,-12.93019 -0.515625,-4.211429 z"
     style="stroke-width:0.750001" />
</svg>
